/home/woelen/NetBeansProjects/chemeq/src/main/java/net/oelen/chemeq/math/Matrix.java
/home/woelen/NetBeansProjects/chemeq/src/main/java/net/oelen/chemeq/basics/Element.java
/home/woelen/NetBeansProjects/chemeq/src/main/java/net/oelen/chemeq/basics/Isotopes.java
/home/woelen/NetBeansProjects/chemeq/src/main/java/net/oelen/chemeq/math/Sequencer.java
/home/woelen/NetBeansProjects/chemeq/src/main/java/net/oelen/chemeq/basics/Formula.java
/home/woelen/NetBeansProjects/chemeq/src/main/java/net/oelen/chemeq/basics/ElementFactory.java
/home/woelen/NetBeansProjects/chemeq/src/main/java/net/oelen/chemeq/math/Rational.java
/home/woelen/NetBeansProjects/chemeq/src/main/java/net/oelen/chemeq/math/Recombine.java
/home/woelen/NetBeansProjects/chemeq/src/main/java/net/oelen/chemeq/solver/Solver.java
